{
  "dependencies": {
    "mssql1": {
      "resourceId": "/subscriptions/[parameters('subscriptionId')]/resourceGroups/[parameters('resourceGroupName')]/providers/Microsoft.Sql/servers/aimingforhddbserver/databases/AimingForHD_db",
      "type": "mssql.azure",
      "connectionId": "ConnectionStrings:AimingForHD",
      "secretStore": "LocalSecretsFile"
    }
  }
}